{
  "type": "object",
  "required" : [
    "geo_node_id",
    "healthy",
    "health",
    "health_status",
    "attachments_count",
    "attachments_failed_count",
    "attachments_synced_count",
    "lfs_objects_count",
    "lfs_objects_failed_count",
    "lfs_objects_synced_count",
    "db_replication_lag_seconds",
    "repositories_count",
    "repositories_failed_count",
    "repositories_synced_count",
    "last_event_id",
    "last_event_timestamp",
    "cursor_last_event_id",
    "cursor_last_event_timestamp",
    "namespaces",
    "version",
    "revision"
  ],
  "properties" : {
    "geo_node_id": { "type": "integer" },
    "healthy": { "type": "boolean" },
    "health": { "type": ["string", "null"] },
    "health_status": { "type": "string" },
    "attachments_count": { "type": "integer" },
    "attachments_failed_count": { "type": "integer" },
    "attachments_synced_count": { "type": "integer" },
    "attachments_synced_in_percentage": { "type": "string" },
    "db_replication_lag_seconds": { "type": ["integer", "null"] },
    "lfs_objects_count": { "type": "integer" },
    "lfs_objects_failed_count": { "type": "integer" },
    "lfs_objects_synced_count": { "type": "integer" },
    "lfs_objects_synced_in_percentage": { "type": "string" },
    "repositories_count": { "type": "integer" },
    "repositories_failed_count": { "type": "integer" },
    "repositories_synced_count": { "type": "integer" },
    "repositories_synced_in_percentage": { "type": "string" },
    "last_event_id": { "type": ["integer", "null"] },
    "last_event_timestamp": { "type": ["integer", "null"] },
    "cursor_last_event_id": { "type": ["integer", "null"] },
    "cursor_last_event_timestamp": { "type": ["integer", "null"] },
    "last_successful_status_check_timestamp": { "type": ["integer", "null"] },
    "namespaces": { "type": "array" },
    "version": { "type": ["string"] },
    "revision": { "type": ["string"] }
  },
  "additionalProperties": false
}
